{
  "project_info": {
    "project_number": "932606465253",
    "firebase_url": "https://shaped-network-202507-default-rtdb.firebaseio.com",
    "project_id": "shaped-network-202507",
    "storage_bucket": "shaped-network-202507.appspot.com"
  },
  "client": [
    {
      "client_info": {
        "mobilesdk_app_id": "1:932606465253:android:20ac467d89658bb218b00c",
        "android_client_info": {
          "package_name": "com.priyantotrainingapp"
        }
      },
      "oauth_client": [
        {
          "client_id": "932606465253-dpo281km7fctc3ci1m0a2ch3133mh19a.apps.googleusercontent.com",
          "client_type": 1,
          "android_info": {
            "package_name": "com.priyantotrainingapp",
            "certificate_hash": "5e8f16062ea3cd2c4a0d547876baa6f38cabf625"
          }
        },
        {
          "client_id": "932606465253-fgpe0fc96cbcjo1m2ng5i0h730umbn6m.apps.googleusercontent.com",
          "client_type": 1,
          "android_info": {
            "package_name": "com.priyantotrainingapp",
            "certificate_hash": "e5e9c653e2acccf5031d1a493cf8aa03968e86f5"
          }
        },
        {
          "client_id": "932606465253-jg0vh1asqu6gmf4jn9ao8bq42pjo6orj.apps.googleusercontent.com",
          "client_type": 1,
          "android_info": {
            "package_name": "com.priyantotrainingapp",
            "certificate_hash": "1fecc969740bf50a7e5a4eb985f998b040ec5b88"
          }
        },
        {
          "client_id": "932606465253-i5i8dt885vdn5s2jhlk409t7o44pf3c4.apps.googleusercontent.com",
          "client_type": 3
        }
      ],
      "api_key": [
        {
          "current_key": "AIzaSyDXmL7Q2e_SmoUlXJGZsqJoc7yRw9P7_7g"
        }
      ],
      "services": {
        "appinvite_service": {
          "other_platform_oauth_client": [
            {
              "client_id": "932606465253-i5i8dt885vdn5s2jhlk409t7o44pf3c4.apps.googleusercontent.com",
              "client_type": 3
            }
          ]
        }
      }
    }
  ],
  "configuration_version": "1"
}